{
    "leftside": {
        "icon": "images/firefox.png",
        "title": "Firefox",
        "note": "Download the most recent version of Firefox for free. Simply click the \"Free Download\" button below and your Firefox download will begin. This Firefox download is 100% free and all you need to get Firefox up and running on your PC. For more information about Firefox, check out our Firefox review below. Firefox is an excellent choice.",
        "sections": [
            {
                "has_download_button": true,
                "downloadlink": "#",
                "donwload_btn_title": "FREE DOWNLOAD",
                "message_below_button": "Clicking the Download button will download<b>Firefox Setup.exe</b>to your PC.",
                "title": "Firefox 2014 Review",
                "descriptoin": [
                    "Firefox continues to be a force in the browser wars, and is a must-have for anyone who is looking for an alternative to Internet Explorer. The browser is free, and also open-source. From the moment it was released, Firefox was revolutionary in the browser category and continues to be so. Download Firefox, and surf the web the way it was meant to be. When you use Firefox, you can expect to enjoy both features that currently exist in Internet Explorer, as well as features that are exclusive to Firefox. These features include spell checking, tabbed browsing, live bookmarks, a download manager, private browsing, and more. In addition, you have full access to thousands of themes and settings that allow you to truly make the browser your own. Also, enough can't be said about the extensions that Firefox supports. These extensions allow you to add all sorts of additional features to Firefox. They are easy to install, and are an absolute asset for any web surfer. However, depending on the extension, they may take up their fair share of RAM. Keep an eye on these extensions to ensure that Firefox doesn't become a system resources hog."
                ]
            },
            {
                "has_download_button": true,
                "downloadlink": "#",
                "donwload_btn_title": "FREE DOWNLOAD",
                "message_below_button": "",
                "title": "Modified Installer:",
                "descriptoin": [
                    "DownToad.com is distributing modified installers which are different from the originally available distribution. These custom installers comply with the original software authors' policies and terms, however, they are not the originals.",
                    "Air Installer is an install manager which manages the installation of Firefox and Air Installer will offer free popular software to you. You are not required to install any additional software to complete your installation of Firefox. You can always completely remove the programs at any time in Windows' Add/Remove Programs.",
                    "Clicking any of the Free Download buttons on this page will download the Firefox Setup file to your designated download location. . Opening this setup file launches AirInstaller (<a target=\"blank\" href=\"#\">Learn more</a>) to manage your installation process, which may offer additional and optional offers from 3rd party software advertisers. By installing, you agree to the<a target=\"blank\" href=\"#\">Terms &amp; Conditions</a>and the<a target=\"blank\" href=\"#\">Privacy Policy</a>. Learn how to Uninstall this software. The original version of this software is being distributed for free by the original software manufacturer, and is also available to you free by clicking<a target=\"blank\" href=\"#\">here</a>. DownToad.com is not affiliated with the original software manufacturer"
                ]
            }
        ]
    },
    "has_sidebar": true,
    "rightside": {
        "stars" : [
            "<i class=\"fa fa-star stars\"></i>",
            "<i class=\"fa fa-star stars\"></i>",
            "<i class=\"fa fa-star stars\"></i>",
            "<i class=\"fa fa-star stars\"></i>",
            "<i class=\"fa fa-star stars\"></i>"
        ],
        "recommendation" : "Highly Recommended",
        "logo" : "images/firefox.png",
        "software" : "Firefox",
        "license" : "Freeware",
        "eula" : "<a target=\"blank\" href=\"#\">License Agreement</a>",
        "author" : "<a target=\"blank\" href=\"#\">Mozilla</a>",
        "os" : "<img class=\"img-responsive side-logos\" src=\"images/winlogo.png\">",
        "donwloads" : "846,416"        
    }
}