{
    "leftside": {
        "title": "The Installer We Use",        
        "simpleparagraph": [
            "Clicking any Free Download button on DownToad will begin downloading the software using an installer called Air Installer. Air Installer is an install manager that will manage the installation of your selected software. In addition to managing the installation of your selected software, Air Installer will make recommendations for additional free software that you may be interested in.Additional software may include toolbars, browser add-ons, game applications, anti-virus applications, and other types of applications.",
            "You are not required to install any additional software to receive your selected software. When the download box appears, click Run or Open to start downloading Air Installer. Once the download of Air Installer has been completed, the installation process will begin. To continue the installation of your selected software, press the Accept button. You may choose to Accept or Decline any additional software. Once you have Accepted or Declined the offers, Air Installer will complete the installation of your selected software and any additional software your chose.",
            "Air Installer manages the installation of your software. During the installation we may set cookies and/or update your registry:",
            "1) Our websites install cookies on your computer. The product and last session cookies includes information about when and what products you downloaded. The user cookie helps us to recognize you on subsequent visits. An identification cookie is placed on your computer if you choose to register with us. None of our cookies contain Personally Identifiable Information.",
            "2) Air Installer automatically uninstalls once you have received your download."
        ],
        "sections" : [
            {   
                "title" : "Typical Installation Process (Click Image to Expand)",  
                "hasimage" : true,
                "imageurl" : "",
                "descriptoin": []
            },
            {   
                "title" : "Why Is This Application Free?",                
                "hasimage" : false, 
                "descriptoin": [
                    "After clicking Accept you will be offered additional useful, quality software provided by Air Installer's reputable partners. Your support of these software offers allows us to provide you with free access to our software. All offers presented by Air Installer are 100% optional."
                ]
            }
        ],
        "tableinfo" : {
            "title" : "Software That May Be Offered During Installation",
            "collumns" : ["Name:", "Features:", "Contact:"],
            "rows" : [
                {
                    "Name" : "Internet<br>Helper<br>Toolbar",
                    "Features" : "Internet Helper Toolbar, powered by Conduit, allows you to eaily search and navigate the web. Easy access to news, weather, and more.",
                    "Contact" : "<a href=\"#\">Contact Form</a>"
                },
                {
                    "Name" : "Anti-phising<br>Domain<br>Advisor",
                    "Features" : "The Anti-phishing Domain Advisor ensures you navigate the Web safely by protecting you from \"phishing sites\" (copycats of legitimate sites that steal your personal info) or \"malware sites\" designed to harm your computer.",
                    "Contact" : "<a href=\"#\">Contact Form</a>"
                },
                {
                    "Name" : "My Search<br>Results",
                    "Features" : "A unique search tool that is installed into your Internet browser and gives you instant access to searching the Internet from any web page.",
                    "Contact" : "<a href=\"#\">Contact Form</a>"
                },
                {
                    "Name" : "PC Speed<br>Maximizer",
                    "Features" : "Optimizes your PC by fixing errors, deleting junk files, and speeds up PC start up time.",
                    "Contact" : "91 Boulevard National<br>92250 La Garenne Colombes, France<br>Email:<a href=\"#\">upclick@avanquest-uk.com </a>"
                }
            ]
        }      
    }    
}