{
    "leftside": {
        "icon": "images/firefox.png",
        "title": "OpenOffice",
        "note": "Download the most recent version of Firefox for free. Simply click the \"Free Download\" button below and your Firefox download will begin. This Firefox download is 100% free and all you need to get Firefox up and running on your PC. For more information about Firefox, check out our Firefox review below. Firefox is an excellent choice.",
        "sections": [
            {
                "has_download_button": true,
                "downloadlink": "#",
                "donwload_btn_title": "FREE DOWNLOAD",
                "message_below_button": "Clicking the Download button will download<b>OpenOffice Setup.exe</b>to your PC.",
                "title": "OpenOffice 2014 Review",
                "descriptoin": [
                    "When you are looking for a free, and easy to use alternative to Microsoft Office, Apache's OpenOffice is the best option on the market today. This lightweight suite is fully compatible with all formats used by Microsoft Office, including the newest ones, such as .docx and .pptx, and others. OpenOffice allows you to create presentations, documents, spreadsheets, databases, and much more with its six apps, while also providing the ability to work with those created with other types of software. It is also easy to use and can be accessed in with a single click from the Start Center, providing a comfortable way to begin working in just a few seconds. OpenOffice does not consume all of your computer's resources, making it an excellent choice for older computers and those who need to run many applications at once. Installing OpenOffice is pain free, thanks to its intuitive installer, while its interface allows you to choose exactly what components you want, which translates to saving space and resources. One of the biggest advantages of OpenOffice is providing a large amount of support in various forms, including documentation files, a community of users, and much more, making it a viable substitute to Microsoft Office for beginners and experienced users alike. To make things even better, OpenOffice can be customized and improved, as many new templates and extensions are available for that specific purpose at the developer's site, giving you the ability to configure the software to your specifications, rather than having to deal with a more generic appearance. OpenOffice is an open source program, and available in 27 languages, which makes it one of the most versatile in its kind. It can be run on Windows, Linux, and Solaris devices, making it more flexible than other similar suites, while providing you with stability and constant improvement.It is also compatible with many external email clients, which removes the restrictions placed on Microsoft Office by Outlook, and allowing you to choose which email client will work best with your needs and requirements. The most appealing part of OpenOffice is that it is free, providing a high quality option for those on a budget or who require software compatible with one of the less mainstream operative systems. A large community of users and developers also ensures that improvements are constantly being released, as well as new ways to customize your software, and an increased compatibility with the files produced by other suites, making it one of the best choices on the market today."
                ]
            },
            {
                "has_download_button": true,
                "downloadlink": "#",
                "donwload_btn_title": "FREE DOWNLOAD",
                "message_below_button": "",
                "title": "Modified Installer:",
                "descriptoin": [
                    "DownToad.com is distributing modified installers which are different from the originally available distribution. These custom installers comply with the original software authors' policies and terms, however, they are not the originals.",
                    "Air Installer is an install manager which manages the installation of Firefox and Air Installer will offer free popular software to you. You are not required to install any additional software to complete your installation of Firefox. You can always completely remove the programs at any time in Windows' Add/Remove Programs.",
                    "Clicking any of the Free Download buttons on this page will download the Firefox Setup file to your designated download location. . Opening this setup file launches AirInstaller (<a target=\"blank\" href=\"#\">Learn more</a>) to manage your installation process, which may offer additional and optional offers from 3rd party software advertisers. By installing, you agree to the<a target=\"blank\" href=\"#\">Terms &amp; Conditions</a>and the<a target=\"blank\" href=\"#\">Privacy Policy</a>. Learn how to Uninstall this software. The original version of this software is being distributed for free by the original software manufacturer, and is also available to you free by clicking<a target=\"blank\" href=\"#\">here</a>. DownToad.com is not affiliated with the original software manufacturer"
                ]
            }
        ]
    },
    "has_sidebar": true,
    "rightside": {
        "stars" : [
            "<i class=\"fa fa-star stars\"></i>",
            "<i class=\"fa fa-star stars\"></i>",
            "<i class=\"fa fa-star stars\"></i>",
            "<i class=\"fa fa-star stars\"></i>",
            "<i class=\"fa fa-star stars\"></i>"
        ],
        "recommendation" : "Highly Recommended",
        "logo" : "images/firefox.png",
        "software" : "OpenOffice",
        "license" : "Freeware",
        "eula" : "<a target=\"blank\" href=\"#\">License Agreement</a>",
        "author" : "<a target=\"blank\" href=\"#\">Apache</a>",
        "os" : "<img class=\"img-responsive side-logos\" src=\"images/winlogo.png\">",
        "donwloads" : "846,416"        
    }
}